APScheduler==3.10.4
bleach==6.2.0
django-braces==1.16.0
django-dramatiq==0.12.0
django-extensions==3.2.3
django-recaptcha==4.0.0
django-reversion==5.1.0
django-sendfile2==0.7.1
django-taggit==6.1.0
Django==5.1.5
dramatiq[redis,watch]==1.17.1
easy-thumbnails==2.10
hiredis==2.4.0
humanize==4.11.0
Pillow==11.0.0
psycopg==3.2.4
python-dateutil==2.9.0
pytz==2024.2
redis==5.0.8
sparkpost==1.3.6
wagtail==6.3.2
